{
  "transactions": [
    {
      "hash": "0x6431d7094556e0aa7e087ae7e31b91a4437a1af509ab5afb2f93caa9cfcfbdbe",
      "transactionType": "CALL",
      "contractName": null,
      "contractAddress": "0x7ce7abb7F8794dCe67FB2dc4d8eBf2F033472730",
      "function": "transfer(address,uint256)",
      "arguments": [
        "0x3367e6FeCCdd7a636213AFe65babDa2A4FEEc508",
        "1000000000000000000"
      ],
      "transaction": {
        "type": "0x02",
        "from": "0x5992fe461f81c8e0affa95b831e50e9b3854ba0e",
        "to": "0x7ce7abb7f8794dce67fb2dc4d8ebf2f033472730",
        "gas": "0x11595",
        "value": "0x0",
        "data": "0xa9059cbb0000000000000000000000003367e6feccdd7a636213afe65babda2a4feec5080000000000000000000000000000000000000000000000000de0b6b3a7640000",
        "nonce": "0x42d",
        "accessList": []
      },
      "additionalContracts": [],
      "isFixedGasLimit": false
    },
    {
      "hash": "0x0b2c4fa2378086fa5d48ec318ed8fd05a0af927ed7d481b98838f4ba6c1e26a5",
      "transactionType": "CALL",
      "contractName": null,
      "contractAddress": "0x3367e6FeCCdd7a636213AFe65babDa2A4FEEc508",
      "function": "transferNative(address,uint256)",
      "arguments": [
        "0xf315B9006C20913D6D8498BDf657E778d4Ddf2c4",
        "1000000000000"
      ],
      "transaction": {
        "type": "0x02",
        "from": "0x5992fe461f81c8e0affa95b831e50e9b3854ba0e",
        "to": "0x3367e6feccdd7a636213afe65babda2a4feec508",
        "gas": "0x1186b",
        "value": "0x0",
        "data": "0x7d2e90c2000000000000000000000000f315b9006c20913d6d8498bdf657e778d4ddf2c4000000000000000000000000000000000000000000000000000000e8d4a51000",
        "nonce": "0x42e",
        "accessList": []
      },
      "additionalContracts": [],
      "isFixedGasLimit": false
    },
    {
      "hash": "0xf006861614c86f7f56aba86453e1a3e1aa7b89743d422486b4cf7ca1ef32a118",
      "transactionType": "CALL",
      "contractName": null,
      "contractAddress": "0x7ce7abb7F8794dCe67FB2dc4d8eBf2F033472730",
      "function": "transfer(address,uint256)",
      "arguments": [
        "0x3367e6FeCCdd7a636213AFe65babDa2A4FEEc508",
        "440000000000000000000"
      ],
      "transaction": {
        "type": "0x02",
        "from": "0x5992fe461f81c8e0affa95b831e50e9b3854ba0e",
        "to": "0x7ce7abb7f8794dce67fb2dc4d8ebf2f033472730",
        "gas": "0xb963",
        "value": "0x0",
        "data": "0xa9059cbb0000000000000000000000003367e6feccdd7a636213afe65babda2a4feec508000000000000000000000000000000000000000000000017da3a04c7b3e00000",
        "nonce": "0x42f",
        "accessList": []
      },
      "additionalContracts": [],
      "isFixedGasLimit": false
    },
    {
      "hash": "0xb73dd7214af4863fec10ef9c3bcf536729d3211b88476aea148f87483a7c8a3f",
      "transactionType": "CALL",
      "contractName": null,
      "contractAddress": "0x3367e6FeCCdd7a636213AFe65babDa2A4FEEc508",
      "function": "payFeeAdvance(uint64)",
      "arguments": [
        "2"
      ],
      "transaction": {
        "type": "0x02",
        "from": "0x5992fe461f81c8e0affa95b831e50e9b3854ba0e",
        "to": "0x3367e6feccdd7a636213afe65babda2a4feec508",
        "gas": "0x16878",
        "value": "0x0",
        "data": "0xe809f95f0000000000000000000000000000000000000000000000000000000000000002",
        "nonce": "0x430",
        "accessList": []
      },
      "additionalContracts": [],
      "isFixedGasLimit": false
    },
    {
      "hash": "0x866ca15cb3eb92ff4a1d970264a99915f3ee8ebadc55e579fc6ce45e1667096e",
      "transactionType": "CALL",
      "contractName": null,
      "contractAddress": "0x3367e6FeCCdd7a636213AFe65babDa2A4FEEc508",
      "function": "transferERC20(address,address,uint256)",
      "arguments": [
        "0x7ce7abb7F8794dCe67FB2dc4d8eBf2F033472730",
        "0xf315B9006C20913D6D8498BDf657E778d4Ddf2c4",
        "10000000000000000"
      ],
      "transaction": {
        "type": "0x02",
        "from": "0x5992fe461f81c8e0affa95b831e50e9b3854ba0e",
        "to": "0x3367e6feccdd7a636213afe65babda2a4feec508",
        "gas": "0x13a0d",
        "value": "0x0",
        "data": "0x9db5dbe40000000000000000000000007ce7abb7f8794dce67fb2dc4d8ebf2f033472730000000000000000000000000f315b9006c20913d6d8498bdf657e778d4ddf2c4000000000000000000000000000000000000000000000000002386f26fc10000",
        "nonce": "0x431",
        "accessList": []
      },
      "additionalContracts": [],
      "isFixedGasLimit": false
    },
    {
      "hash": "0x076c7a0e5da741d3a00c76b2bab8ddd49d5d07877192f5b51c55c2b45a7d7e0a",
      "transactionType": "CALL",
      "contractName": null,
      "contractAddress": "0x3367e6FeCCdd7a636213AFe65babDa2A4FEEc508",
      "function": "iAmAlive()",
      "arguments": [],
      "transaction": {
        "type": "0x02",
        "from": "0x5992fe461f81c8e0affa95b831e50e9b3854ba0e",
        "to": "0x3367e6feccdd7a636213afe65babda2a4feec508",
        "gas": "0xe708",
        "value": "0x0",
        "data": "0xca1d3e58",
        "nonce": "0x432",
        "accessList": []
      },
      "additionalContracts": [],
      "isFixedGasLimit": false
    },
    {
      "hash": "0x7c1605fd8e144ed0de97eea1aef08c0d6aeb9094491cf8551a5a8bc410e73685",
      "transactionType": "CALL",
      "contractName": null,
      "contractAddress": "0x3367e6FeCCdd7a636213AFe65babDa2A4FEEc508",
      "function": "executeOp(address,uint256,bytes)",
      "arguments": [
        "0x7ce7abb7F8794dCe67FB2dc4d8eBf2F033472730",
        "0",
        "0xa9059cbb000000000000000000000000f315b9006c20913d6d8498bdf657e778d4ddf2c4000000000000000000000000000000000000000000000000002386f26fc10000"
      ],
      "transaction": {
        "type": "0x02",
        "from": "0x5992fe461f81c8e0affa95b831e50e9b3854ba0e",
        "to": "0x3367e6feccdd7a636213afe65babda2a4feec508",
        "gas": "0x15185",
        "value": "0x0",
        "data": "0xe772f51b0000000000000000000000007ce7abb7f8794dce67fb2dc4d8ebf2f033472730000000000000000000000000000000000000000000000000000000000000000000000000000000000000000000000000000000000000000000000000000000600000000000000000000000000000000000000000000000000000000000000044a9059cbb000000000000000000000000f315b9006c20913d6d8498bdf657e778d4ddf2c4000000000000000000000000000000000000000000000000002386f26fc1000000000000000000000000000000000000000000000000000000000000",
        "nonce": "0x433",
        "accessList": []
      },
      "additionalContracts": [],
      "isFixedGasLimit": false
    }
  ],
  "receipts": [
    {
      "transactionHash": "0x6431d7094556e0aa7e087ae7e31b91a4437a1af509ab5afb2f93caa9cfcfbdbe",
      "transactionIndex": "0x1c",
      "blockHash": "0x903972f836ebba780ad00866a0a24003feff6ff84a57d741770e0ebff7d6d1da",
      "blockNumber": "0x5b6d79",
      "from": "0x5992Fe461F81C8E0aFFA95b831E50e9b3854BA0E",
      "to": "0x7ce7abb7F8794dCe67FB2dc4d8eBf2F033472730",
      "cumulativeGasUsed": "0x2b30c8",
      "gasUsed": "0xc8f8",
      "contractAddress": null,
      "logs": [
        {
          "address": "0x7ce7abb7F8794dCe67FB2dc4d8eBf2F033472730",
          "topics": [
            "0xddf252ad1be2c89b69c2b068fc378daa952ba7f163c4a11628f55a4df523b3ef",
            "0x0000000000000000000000005992fe461f81c8e0affa95b831e50e9b3854ba0e",
            "0x0000000000000000000000003367e6feccdd7a636213afe65babda2a4feec508"
          ],
          "data": "0x0000000000000000000000000000000000000000000000000de0b6b3a7640000",
          "blockHash": "0x903972f836ebba780ad00866a0a24003feff6ff84a57d741770e0ebff7d6d1da",
          "blockNumber": "0x5b6d79",
          "transactionHash": "0x6431d7094556e0aa7e087ae7e31b91a4437a1af509ab5afb2f93caa9cfcfbdbe",
          "transactionIndex": "0x1c",
          "logIndex": "0x2f",
          "removed": false
        }
      ],
      "status": "0x1",
      "logsBloom": "0x00000000040000000000000000000000000000000000000000000000000000000000000000000000000000000000000000004000000000000000000000000000000040000000000000000008000000400000000000000000000000000000000000000000000000000000000000000000000000000000000000000010000000000000000800000000000000000000000000000000000000000000000000004000000000000000000000000000000000000000000000000000040000000000000000000002000000000000000000000000000000000000000000000000000000000000002000000000000040000000000000000000000000000000000000000000",
      "type": "0x2",
      "effectiveGasPrice": "0x79148f3e9"
    },
    {
      "transactionHash": "0x0b2c4fa2378086fa5d48ec318ed8fd05a0af927ed7d481b98838f4ba6c1e26a5",
      "transactionIndex": "0x1d",
      "blockHash": "0x903972f836ebba780ad00866a0a24003feff6ff84a57d741770e0ebff7d6d1da",
      "blockNumber": "0x5b6d79",
      "from": "0x5992Fe461F81C8E0aFFA95b831E50e9b3854BA0E",
      "to": "0x3367e6FeCCdd7a636213AFe65babDa2A4FEEc508",
      "cumulativeGasUsed": "0x2bfbcd",
      "gasUsed": "0xcb05",
      "contractAddress": null,
      "logs": [
        {
          "address": "0x3367e6FeCCdd7a636213AFe65babDa2A4FEEc508",
          "topics": [
            "0xd05cd9f84f31b08fce01e8470536fbf69b8750dc23c8d46cb4f6734c471a9b6c"
          ],
          "data": "0x000000000000000000000000000000000000000000000000000000e8d4a51000",
          "blockHash": "0x903972f836ebba780ad00866a0a24003feff6ff84a57d741770e0ebff7d6d1da",
          "blockNumber": "0x5b6d79",
          "transactionHash": "0x0b2c4fa2378086fa5d48ec318ed8fd05a0af927ed7d481b98838f4ba6c1e26a5",
          "transactionIndex": "0x1d",
          "logIndex": "0x30",
          "removed": false
        }
      ],
      "status": "0x1",
      "logsBloom": "0x02000000000000000000000000000000800000000000000000000000000000000000000000000000000000000000000000000000000000000000000000000000000000000000004000000000000000000000000000000000010000000000000000000000000000000000000000000000000000000000000000000000000000000000000000000000000000000000000000000000000000000000000000000000000000000000000000000000000000000000000000000000000000000000000000000000000000000000000000000000000000000000000000000000000004000000000000000000000000000000000000000000000000000000004000000000",
      "type": "0x2",
      "effectiveGasPrice": "0x79148f3e9"
    },
    {
      "transactionHash": "0xf006861614c86f7f56aba86453e1a3e1aa7b89743d422486b4cf7ca1ef32a118",
      "transactionIndex": "0x1e",
      "blockHash": "0x903972f836ebba780ad00866a0a24003feff6ff84a57d741770e0ebff7d6d1da",
      "blockNumber": "0x5b6d79",
      "from": "0x5992Fe461F81C8E0aFFA95b831E50e9b3854BA0E",
      "to": "0x7ce7abb7F8794dCe67FB2dc4d8eBf2F033472730",
      "cumulativeGasUsed": "0x2c8205",
      "gasUsed": "0x8638",
      "contractAddress": null,
      "logs": [
        {
          "address": "0x7ce7abb7F8794dCe67FB2dc4d8eBf2F033472730",
          "topics": [
            "0xddf252ad1be2c89b69c2b068fc378daa952ba7f163c4a11628f55a4df523b3ef",
            "0x0000000000000000000000005992fe461f81c8e0affa95b831e50e9b3854ba0e",
            "0x0000000000000000000000003367e6feccdd7a636213afe65babda2a4feec508"
          ],
          "data": "0x000000000000000000000000000000000000000000000017da3a04c7b3e00000",
          "blockHash": "0x903972f836ebba780ad00866a0a24003feff6ff84a57d741770e0ebff7d6d1da",
          "blockNumber": "0x5b6d79",
          "transactionHash": "0xf006861614c86f7f56aba86453e1a3e1aa7b89743d422486b4cf7ca1ef32a118",
          "transactionIndex": "0x1e",
          "logIndex": "0x31",
          "removed": false
        }
      ],
      "status": "0x1",
      "logsBloom": "0x00000000040000000000000000000000000000000000000000000000000000000000000000000000000000000000000000004000000000000000000000000000000040000000000000000008000000400000000000000000000000000000000000000000000000000000000000000000000000000000000000000010000000000000000800000000000000000000000000000000000000000000000000004000000000000000000000000000000000000000000000000000040000000000000000000002000000000000000000000000000000000000000000000000000000000000002000000000000040000000000000000000000000000000000000000000",
      "type": "0x2",
      "effectiveGasPrice": "0x79148f3e9"
    },
    {
      "transactionHash": "0xb73dd7214af4863fec10ef9c3bcf536729d3211b88476aea148f87483a7c8a3f",
      "transactionIndex": "0x1f",
      "blockHash": "0x903972f836ebba780ad00866a0a24003feff6ff84a57d741770e0ebff7d6d1da",
      "blockNumber": "0x5b6d79",
      "from": "0x5992Fe461F81C8E0aFFA95b831E50e9b3854BA0E",
      "to": "0x3367e6FeCCdd7a636213AFe65babDa2A4FEEc508",
      "cumulativeGasUsed": "0x2d787f",
      "gasUsed": "0xf67a",
      "contractAddress": null,
      "logs": [
        {
          "address": "0x7ce7abb7F8794dCe67FB2dc4d8eBf2F033472730",
          "topics": [
            "0xddf252ad1be2c89b69c2b068fc378daa952ba7f163c4a11628f55a4df523b3ef",
            "0x0000000000000000000000003367e6feccdd7a636213afe65babda2a4feec508",
            "0x000000000000000000000000dda2f2e159d2ce413bd0e1df5988ee7a803432e3"
          ],
          "data": "0x000000000000000000000000000000000000000000000002629f66e0c5300000",
          "blockHash": "0x903972f836ebba780ad00866a0a24003feff6ff84a57d741770e0ebff7d6d1da",
          "blockNumber": "0x5b6d79",
          "transactionHash": "0xb73dd7214af4863fec10ef9c3bcf536729d3211b88476aea148f87483a7c8a3f",
          "transactionIndex": "0x1f",
          "logIndex": "0x32",
          "removed": false
        }
      ],
      "status": "0x1",
      "logsBloom": "0x00000000040000000000000000000000000000000000000000000000000000000000000000000000000000000000000000004000000000000000000000000000000040000000000000000008000000400000000000000000020000000000000000000000000000000000000000000000000000000000000000000010000000000000000000000000000000000800000000000000000000000000000000000000000000000000000000000000000000000000000000000000000000000000000000000002000000000000000000000000000000000000000000000000000000000000002000000000000040000000000000000000000000000200000000000000",
      "type": "0x2",
      "effectiveGasPrice": "0x79148f3e9"
    },
    {
      "transactionHash": "0x866ca15cb3eb92ff4a1d970264a99915f3ee8ebadc55e579fc6ce45e1667096e",
      "transactionIndex": "0x20",
      "blockHash": "0x903972f836ebba780ad00866a0a24003feff6ff84a57d741770e0ebff7d6d1da",
      "blockNumber": "0x5b6d79",
      "from": "0x5992Fe461F81C8E0aFFA95b831E50e9b3854BA0E",
      "to": "0x3367e6FeCCdd7a636213AFe65babDa2A4FEEc508",
      "cumulativeGasUsed": "0x2e5bde",
      "gasUsed": "0xe35f",
      "contractAddress": null,
      "logs": [
        {
          "address": "0x7ce7abb7F8794dCe67FB2dc4d8eBf2F033472730",
          "topics": [
            "0xddf252ad1be2c89b69c2b068fc378daa952ba7f163c4a11628f55a4df523b3ef",
            "0x0000000000000000000000003367e6feccdd7a636213afe65babda2a4feec508",
            "0x000000000000000000000000f315b9006c20913d6d8498bdf657e778d4ddf2c4"
          ],
          "data": "0x000000000000000000000000000000000000000000000000002386f26fc10000",
          "blockHash": "0x903972f836ebba780ad00866a0a24003feff6ff84a57d741770e0ebff7d6d1da",
          "blockNumber": "0x5b6d79",
          "transactionHash": "0x866ca15cb3eb92ff4a1d970264a99915f3ee8ebadc55e579fc6ce45e1667096e",
          "transactionIndex": "0x20",
          "logIndex": "0x33",
          "removed": false
        }
      ],
      "status": "0x1",
      "logsBloom": "0x00000000040200000000000000000000000000000000000000000000000000000000000000000000000000000000000000004000000000000000000000000000000040000000000000000008000000400000000000000000000000000000000000000000000000000000000000000000000000000000000000000010000000000000000000400000000000000000000000000000000000000000000000000000000000000000000000000000000000000000000000000000000000000000000000000082000000000000000000000000000000000000000000000000000000000000002000000000000040000000000000000000000000000000000000000000",
      "type": "0x2",
      "effectiveGasPrice": "0x79148f3e9"
    },
    {
      "transactionHash": "0x076c7a0e5da741d3a00c76b2bab8ddd49d5d07877192f5b51c55c2b45a7d7e0a",
      "transactionIndex": "0x21",
      "blockHash": "0x903972f836ebba780ad00866a0a24003feff6ff84a57d741770e0ebff7d6d1da",
      "blockNumber": "0x5b6d79",
      "from": "0x5992Fe461F81C8E0aFFA95b831E50e9b3854BA0E",
      "to": "0x3367e6FeCCdd7a636213AFe65babDa2A4FEEc508",
      "cumulativeGasUsed": "0x2ef9d7",
      "gasUsed": "0x9df9",
      "contractAddress": null,
      "logs": [],
      "status": "0x1",
      "logsBloom": "0x00000000000000000000000000000000000000000000000000000000000000000000000000000000000000000000000000000000000000000000000000000000000000000000000000000000000000000000000000000000000000000000000000000000000000000000000000000000000000000000000000000000000000000000000000000000000000000000000000000000000000000000000000000000000000000000000000000000000000000000000000000000000000000000000000000000000000000000000000000000000000000000000000000000000000000000000000000000000000000000000000000000000000000000000000000000",
      "type": "0x2",
      "effectiveGasPrice": "0x79148f3e9"
    },
    {
      "transactionHash": "0x7c1605fd8e144ed0de97eea1aef08c0d6aeb9094491cf8551a5a8bc410e73685",
      "transactionIndex": "0x22",
      "blockHash": "0x903972f836ebba780ad00866a0a24003feff6ff84a57d741770e0ebff7d6d1da",
      "blockNumber": "0x5b6d79",
      "from": "0x5992Fe461F81C8E0aFFA95b831E50e9b3854BA0E",
      "to": "0x3367e6FeCCdd7a636213AFe65babDa2A4FEEc508",
      "cumulativeGasUsed": "0x2fe0a0",
      "gasUsed": "0xe6c9",
      "contractAddress": null,
      "logs": [
        {
          "address": "0x7ce7abb7F8794dCe67FB2dc4d8eBf2F033472730",
          "topics": [
            "0xddf252ad1be2c89b69c2b068fc378daa952ba7f163c4a11628f55a4df523b3ef",
            "0x0000000000000000000000003367e6feccdd7a636213afe65babda2a4feec508",
            "0x000000000000000000000000f315b9006c20913d6d8498bdf657e778d4ddf2c4"
          ],
          "data": "0x000000000000000000000000000000000000000000000000002386f26fc10000",
          "blockHash": "0x903972f836ebba780ad00866a0a24003feff6ff84a57d741770e0ebff7d6d1da",
          "blockNumber": "0x5b6d79",
          "transactionHash": "0x7c1605fd8e144ed0de97eea1aef08c0d6aeb9094491cf8551a5a8bc410e73685",
          "transactionIndex": "0x22",
          "logIndex": "0x34",
          "removed": false
        }
      ],
      "status": "0x1",
      "logsBloom": "0x00000000040200000000000000000000000000000000000000000000000000000000000000000000000000000000000000004000000000000000000000000000000040000000000000000008000000400000000000000000000000000000000000000000000000000000000000000000000000000000000000000010000000000000000000400000000000000000000000000000000000000000000000000000000000000000000000000000000000000000000000000000000000000000000000000082000000000000000000000000000000000000000000000000000000000000002000000000000040000000000000000000000000000000000000000000",
      "type": "0x2",
      "effectiveGasPrice": "0x79148f3e9"
    }
  ],
  "libraries": [],
  "pending": [],
  "returns": {},
  "timestamp": 1716866164,
  "chain": 11155111,
  "commit": "20771bb"
}